template_de1soc/simulation/qsim/rc4.msim.vcd
$comment
	File created using the following command:
		vcd file rc4.msim.vcd -direction
$end
$date
	Thu Jun 13 19:50:00 2024
$end
$version
	ModelSim Version 10.5b
$end
$timescale
	1ps
$end

$scope module decode_vlg_vec_tst $end
$var reg 1 ! clk $end
$var reg 8 " decode_q [7:0] $end
$var reg 8 # encrypted_data [7:0] $end
$var reg 1 $ fail_sensitive $end
$var reg 1 % start $end
$var wire 1 & decode_address [7] $end
$var wire 1 ' decode_address [6] $end
$var wire 1 ( decode_address [5] $end
$var wire 1 ) decode_address [4] $end
$var wire 1 * decode_address [3] $end
$var wire 1 + decode_address [2] $end
$var wire 1 , decode_address [1] $end
$var wire 1 - decode_address [0] $end
$var wire 1 . decode_data [7] $end
$var wire 1 / decode_data [6] $end
$var wire 1 0 decode_data [5] $end
$var wire 1 1 decode_data [4] $end
$var wire 1 2 decode_data [3] $end
$var wire 1 3 decode_data [2] $end
$var wire 1 4 decode_data [1] $end
$var wire 1 5 decode_data [0] $end
$var wire 1 6 decode_wren $end
$var wire 1 7 decrypted_addr [7] $end
$var wire 1 8 decrypted_addr [6] $end
$var wire 1 9 decrypted_addr [5] $end
$var wire 1 : decrypted_addr [4] $end
$var wire 1 ; decrypted_addr [3] $end
$var wire 1 < decrypted_addr [2] $end
$var wire 1 = decrypted_addr [1] $end
$var wire 1 > decrypted_addr [0] $end
$var wire 1 ? decrypted_data [7] $end
$var wire 1 @ decrypted_data [6] $end
$var wire 1 A decrypted_data [5] $end
$var wire 1 B decrypted_data [4] $end
$var wire 1 C decrypted_data [3] $end
$var wire 1 D decrypted_data [2] $end
$var wire 1 E decrypted_data [1] $end
$var wire 1 F decrypted_data [0] $end
$var wire 1 G encrypted_addr [7] $end
$var wire 1 H encrypted_addr [6] $end
$var wire 1 I encrypted_addr [5] $end
$var wire 1 J encrypted_addr [4] $end
$var wire 1 K encrypted_addr [3] $end
$var wire 1 L encrypted_addr [2] $end
$var wire 1 M encrypted_addr [1] $end
$var wire 1 N encrypted_addr [0] $end
$var wire 1 O fail $end
$var wire 1 P finish $end

$scope module i1 $end
$var wire 1 Q gnd $end
$var wire 1 R vcc $end
$var wire 1 S unknown $end
$var tri1 1 T devclrn $end
$var tri1 1 U devpor $end
$var tri1 1 V devoe $end
$var wire 1 W finish~output_o $end
$var wire 1 X fail~output_o $end
$var wire 1 Y decode_data[0]~output_o $end
$var wire 1 Z decode_data[1]~output_o $end
$var wire 1 [ decode_data[2]~output_o $end
$var wire 1 \ decode_data[3]~output_o $end
$var wire 1 ] decode_data[4]~output_o $end
$var wire 1 ^ decode_data[5]~output_o $end
$var wire 1 _ decode_data[6]~output_o $end
$var wire 1 ` decode_data[7]~output_o $end
$var wire 1 a decode_wren~output_o $end
$var wire 1 b decode_address[0]~output_o $end
$var wire 1 c decode_address[1]~output_o $end
$var wire 1 d decode_address[2]~output_o $end
$var wire 1 e decode_address[3]~output_o $end
$var wire 1 f decode_address[4]~output_o $end
$var wire 1 g decode_address[5]~output_o $end
$var wire 1 h decode_address[6]~output_o $end
$var wire 1 i decode_address[7]~output_o $end
$var wire 1 j encrypted_addr[0]~output_o $end
$var wire 1 k encrypted_addr[1]~output_o $end
$var wire 1 l encrypted_addr[2]~output_o $end
$var wire 1 m encrypted_addr[3]~output_o $end
$var wire 1 n encrypted_addr[4]~output_o $end
$var wire 1 o encrypted_addr[5]~output_o $end
$var wire 1 p encrypted_addr[6]~output_o $end
$var wire 1 q encrypted_addr[7]~output_o $end
$var wire 1 r decrypted_addr[0]~output_o $end
$var wire 1 s decrypted_addr[1]~output_o $end
$var wire 1 t decrypted_addr[2]~output_o $end
$var wire 1 u decrypted_addr[3]~output_o $end
$var wire 1 v decrypted_addr[4]~output_o $end
$var wire 1 w decrypted_addr[5]~output_o $end
$var wire 1 x decrypted_addr[6]~output_o $end
$var wire 1 y decrypted_addr[7]~output_o $end
$var wire 1 z decrypted_data[0]~output_o $end
$var wire 1 { decrypted_data[1]~output_o $end
$var wire 1 | decrypted_data[2]~output_o $end
$var wire 1 } decrypted_data[3]~output_o $end
$var wire 1 ~ decrypted_data[4]~output_o $end
$var wire 1 !! decrypted_data[5]~output_o $end
$var wire 1 "! decrypted_data[6]~output_o $end
$var wire 1 #! decrypted_data[7]~output_o $end
$var wire 1 $! clk~input_o $end
$var wire 1 %! fail_sensitive~input_o $end
$var wire 1 &! Decoder0~0_combout $end
$var wire 1 '! encrypted_data[6]~input_o $end
$var wire 1 (! decode_q[6]~input_o $end
$var wire 1 )! encrypted_data[5]~input_o $end
$var wire 1 *! decode_q[5]~input_o $end
$var wire 1 +! decrypted_byte~1_combout $end
$var wire 1 ,! decode_data[0]~0_combout $end
$var wire 1 -! Equal2~0_combout $end
$var wire 1 .! Equal2~1_combout $end
$var wire 1 /! Selector15~0_combout $end
$var wire 1 0! Selector15~1_combout $end
$var wire 1 1! Selector14~9_combout $end
$var wire 1 2! Selector14~0_combout $end
$var wire 1 3! Selector14~7_combout $end
$var wire 1 4! Equal1~0_combout $end
$var wire 1 5! Equal1~1_combout $end
$var wire 1 6! Selector14~8_combout $end
$var wire 1 7! Add3~9_sumout $end
$var wire 1 8! k[7]~1_combout $end
$var wire 1 9! Decoder0~3_combout $end
$var wire 1 :! k[7]~2_combout $end
$var wire 1 ;! Add3~10 $end
$var wire 1 <! Add3~5_sumout $end
$var wire 1 =! Add3~6 $end
$var wire 1 >! Add3~17_sumout $end
$var wire 1 ?! Add3~18 $end
$var wire 1 @! Add3~21_sumout $end
$var wire 1 A! Add3~22 $end
$var wire 1 B! Add3~25_sumout $end
$var wire 1 C! Add3~26 $end
$var wire 1 D! Add3~29_sumout $end
$var wire 1 E! Add3~30 $end
$var wire 1 F! Add3~13_sumout $end
$var wire 1 G! Add3~14 $end
$var wire 1 H! Add3~1_sumout $end
$var wire 1 I! k[7]~0_combout $end
$var wire 1 J! Decoder0~6_combout $end
$var wire 1 K! Selector14~4_combout $end
$var wire 1 L! Selector11~0_combout $end
$var wire 1 M! encrypted_data[0]~input_o $end
$var wire 1 N! decode_q[0]~input_o $end
$var wire 1 O! decrypted_byte~3_combout $end
$var wire 1 P! encrypted_data[1]~input_o $end
$var wire 1 Q! decode_q[1]~input_o $end
$var wire 1 R! decrypted_byte~4_combout $end
$var wire 1 S! encrypted_data[2]~input_o $end
$var wire 1 T! decode_q[2]~input_o $end
$var wire 1 U! decrypted_byte~5_combout $end
$var wire 1 V! encrypted_data[3]~input_o $end
$var wire 1 W! decode_q[3]~input_o $end
$var wire 1 X! decrypted_byte~6_combout $end
$var wire 1 Y! encrypted_data[4]~input_o $end
$var wire 1 Z! decode_q[4]~input_o $end
$var wire 1 [! decrypted_byte~7_combout $end
$var wire 1 \! Equal6~1_combout $end
$var wire 1 ]! always0~0_combout $end
$var wire 1 ^! Selector14~5_combout $end
$var wire 1 _! Selector14~6_combout $end
$var wire 1 `! Selector11~1_combout $end
$var wire 1 a! Decoder0~2_combout $end
$var wire 1 b! Decoder0~8_combout $end
$var wire 1 c! encrypted_data[7]~input_o $end
$var wire 1 d! decode_q[7]~input_o $end
$var wire 1 e! decrypted_byte~2_combout $end
$var wire 1 f! Equal6~0_combout $end
$var wire 1 g! Selector14~10_combout $end
$var wire 1 h! Selector15~2_combout $end
$var wire 1 i! Equal2~2_combout $end
$var wire 1 j! state[3]~4_combout $end
$var wire 1 k! Selector12~0_combout $end
$var wire 1 l! start~input_o $end
$var wire 1 m! state[3]~5_combout $end
$var wire 1 n! state[3]~6_combout $end
$var wire 1 o! state[2]~0_combout $end
$var wire 1 p! Decoder0~7_combout $end
$var wire 1 q! state[3]~7_combout $end
$var wire 1 r! state[3]~8_combout $end
$var wire 1 s! state[3]~9_combout $end
$var wire 1 t! state[3]~10_combout $end
$var wire 1 u! Equal4~0_combout $end
$var wire 1 v! Selector8~0_combout $end
$var wire 1 w! Selector8~1_combout $end
$var wire 1 x! Selector8~2_combout $end
$var wire 1 y! Selector8~3_combout $end
$var wire 1 z! Selector8~4_combout $end
$var wire 1 {! s_at_f[3]~0_combout $end
$var wire 1 |! s_at_f[3]~1_combout $end
$var wire 1 }! decrypted_byte~0_combout $end
$var wire 1 ~! Equal6~2_combout $end
$var wire 1 !" always0~1_combout $end
$var wire 1 "" state[2]~1_combout $end
$var wire 1 #" state[2]~2_combout $end
$var wire 1 $" Decoder0~1_combout $end
$var wire 1 %" Selector9~0_combout $end
$var wire 1 &" Selector9~1_combout $end
$var wire 1 '" Selector9~2_combout $end
$var wire 1 (" Selector9~3_combout $end
$var wire 1 )" Selector9~4_combout $end
$var wire 1 *" state[3]~3_combout $end
$var wire 1 +" Selector10~0_combout $end
$var wire 1 ," Selector10~1_combout $end
$var wire 1 -" Selector10~2_combout $end
$var wire 1 ." Selector10~3_combout $end
$var wire 1 /" Selector10~4_combout $end
$var wire 1 0" Selector10~5_combout $end
$var wire 1 1" Selector10~6_combout $end
$var wire 1 2" Selector10~7_combout $end
$var wire 1 3" decode_address[2]~0_combout $end
$var wire 1 4" Selector14~1_combout $end
$var wire 1 5" Selector14~2_combout $end
$var wire 1 6" Selector14~3_combout $end
$var wire 1 7" s_at_j[7]~0_combout $end
$var wire 1 8" s_at_i[7]~0_combout $end
$var wire 1 9" s_at_i[7]~1_combout $end
$var wire 1 :" decode_data[0]~1_combout $end
$var wire 1 ;" decode_data[0]~reg0_q $end
$var wire 1 <" decode_data[1]~reg0_q $end
$var wire 1 =" decode_data[2]~reg0_q $end
$var wire 1 >" decode_data[3]~reg0_q $end
$var wire 1 ?" decode_data[4]~reg0_q $end
$var wire 1 @" decode_data[5]~reg0_q $end
$var wire 1 A" decode_data[6]~reg0_q $end
$var wire 1 B" decode_data[7]~reg0_q $end
$var wire 1 C" Add0~1_sumout $end
$var wire 1 D" i[1]~0_combout $end
$var wire 1 E" Add2~1_sumout $end
$var wire 1 F" Decoder0~9_combout $end
$var wire 1 G" Add1~1_sumout $end
$var wire 1 H" j[4]~0_combout $end
$var wire 1 I" Selector39~0_combout $end
$var wire 1 J" decode_address[2]~1_combout $end
$var wire 1 K" decode_address[0]~reg0_q $end
$var wire 1 L" Add0~2 $end
$var wire 1 M" Add0~5_sumout $end
$var wire 1 N" Add2~2 $end
$var wire 1 O" Add2~5_sumout $end
$var wire 1 P" Add1~2 $end
$var wire 1 Q" Add1~5_sumout $end
$var wire 1 R" Selector38~0_combout $end
$var wire 1 S" decode_address[1]~reg0_q $end
$var wire 1 T" Add0~6 $end
$var wire 1 U" Add0~9_sumout $end
$var wire 1 V" Add2~6 $end
$var wire 1 W" Add2~9_sumout $end
$var wire 1 X" Add1~6 $end
$var wire 1 Y" Add1~9_sumout $end
$var wire 1 Z" Selector37~0_combout $end
$var wire 1 [" decode_address[2]~reg0_q $end
$var wire 1 \" Add0~10 $end
$var wire 1 ]" Add0~13_sumout $end
$var wire 1 ^" Add2~10 $end
$var wire 1 _" Add2~13_sumout $end
$var wire 1 `" Add1~10 $end
$var wire 1 a" Add1~13_sumout $end
$var wire 1 b" Selector36~0_combout $end
$var wire 1 c" decode_address[3]~reg0_q $end
$var wire 1 d" Add0~14 $end
$var wire 1 e" Add0~17_sumout $end
$var wire 1 f" Add2~14 $end
$var wire 1 g" Add2~17_sumout $end
$var wire 1 h" Add1~14 $end
$var wire 1 i" Add1~17_sumout $end
$var wire 1 j" Selector35~0_combout $end
$var wire 1 k" decode_address[4]~reg0_q $end
$var wire 1 l" Add0~18 $end
$var wire 1 m" Add0~21_sumout $end
$var wire 1 n" Add2~18 $end
$var wire 1 o" Add2~21_sumout $end
$var wire 1 p" Add1~18 $end
$var wire 1 q" Add1~21_sumout $end
$var wire 1 r" Selector34~0_combout $end
$var wire 1 s" decode_address[5]~reg0_q $end
$var wire 1 t" Add0~22 $end
$var wire 1 u" Add0~25_sumout $end
$var wire 1 v" Add2~22 $end
$var wire 1 w" Add2~25_sumout $end
$var wire 1 x" Add1~22 $end
$var wire 1 y" Add1~25_sumout $end
$var wire 1 z" Selector33~0_combout $end
$var wire 1 {" decode_address[6]~reg0_q $end
$var wire 1 |" Add0~26 $end
$var wire 1 }" Add0~29_sumout $end
$var wire 1 ~" Add2~26 $end
$var wire 1 !# Add2~29_sumout $end
$var wire 1 "# Add1~26 $end
$var wire 1 ## Add1~29_sumout $end
$var wire 1 $# Selector32~0_combout $end
$var wire 1 %# decode_address[7]~reg0_q $end
$var wire 1 &# Decoder0~4_combout $end
$var wire 1 '# encrypted_addr[0]~reg0_q $end
$var wire 1 (# encrypted_addr[1]~reg0_q $end
$var wire 1 )# encrypted_addr[2]~reg0_q $end
$var wire 1 *# encrypted_addr[3]~reg0_q $end
$var wire 1 +# encrypted_addr[4]~reg0_q $end
$var wire 1 ,# encrypted_addr[5]~reg0_q $end
$var wire 1 -# encrypted_addr[6]~reg0_q $end
$var wire 1 .# encrypted_addr[7]~reg0_q $end
$var wire 1 /# decrypted_addr[0]~reg0_q $end
$var wire 1 0# decrypted_addr[1]~reg0_q $end
$var wire 1 1# decrypted_addr[2]~reg0_q $end
$var wire 1 2# decrypted_addr[3]~reg0_q $end
$var wire 1 3# decrypted_addr[4]~reg0_q $end
$var wire 1 4# decrypted_addr[5]~reg0_q $end
$var wire 1 5# decrypted_addr[6]~reg0_q $end
$var wire 1 6# decrypted_addr[7]~reg0_q $end
$var wire 1 7# Decoder0~5_combout $end
$var wire 1 8# decrypted_data[0]~reg0_q $end
$var wire 1 9# decrypted_data[1]~reg0_q $end
$var wire 1 :# decrypted_data[2]~reg0_q $end
$var wire 1 ;# decrypted_data[3]~reg0_q $end
$var wire 1 <# decrypted_data[4]~reg0_q $end
$var wire 1 =# decrypted_data[5]~reg0_q $end
$var wire 1 ># decrypted_data[6]~reg0_q $end
$var wire 1 ?# decrypted_data[7]~reg0_q $end
$var wire 1 @# k [7] $end
$var wire 1 A# k [6] $end
$var wire 1 B# k [5] $end
$var wire 1 C# k [4] $end
$var wire 1 D# k [3] $end
$var wire 1 E# k [2] $end
$var wire 1 F# k [1] $end
$var wire 1 G# k [0] $end
$var wire 1 H# decrypted_byte [7] $end
$var wire 1 I# decrypted_byte [6] $end
$var wire 1 J# decrypted_byte [5] $end
$var wire 1 K# decrypted_byte [4] $end
$var wire 1 L# decrypted_byte [3] $end
$var wire 1 M# decrypted_byte [2] $end
$var wire 1 N# decrypted_byte [1] $end
$var wire 1 O# decrypted_byte [0] $end
$var wire 1 P# s_at_j [7] $end
$var wire 1 Q# s_at_j [6] $end
$var wire 1 R# s_at_j [5] $end
$var wire 1 S# s_at_j [4] $end
$var wire 1 T# s_at_j [3] $end
$var wire 1 U# s_at_j [2] $end
$var wire 1 V# s_at_j [1] $end
$var wire 1 W# s_at_j [0] $end
$var wire 1 X# s_at_i [7] $end
$var wire 1 Y# s_at_i [6] $end
$var wire 1 Z# s_at_i [5] $end
$var wire 1 [# s_at_i [4] $end
$var wire 1 \# s_at_i [3] $end
$var wire 1 ]# s_at_i [2] $end
$var wire 1 ^# s_at_i [1] $end
$var wire 1 _# s_at_i [0] $end
$var wire 1 `# i [7] $end
$var wire 1 a# i [6] $end
$var wire 1 b# i [5] $end
$var wire 1 c# i [4] $end
$var wire 1 d# i [3] $end
$var wire 1 e# i [2] $end
$var wire 1 f# i [1] $end
$var wire 1 g# i [0] $end
$var wire 1 h# j [7] $end
$var wire 1 i# j [6] $end
$var wire 1 j# j [5] $end
$var wire 1 k# j [4] $end
$var wire 1 l# j [3] $end
$var wire 1 m# j [2] $end
$var wire 1 n# j [1] $end
$var wire 1 o# j [0] $end
$var wire 1 p# s_at_f [7] $end
$var wire 1 q# s_at_f [6] $end
$var wire 1 r# s_at_f [5] $end
$var wire 1 s# s_at_f [4] $end
$var wire 1 t# s_at_f [3] $end
$var wire 1 u# s_at_f [2] $end
$var wire 1 v# s_at_f [1] $end
$var wire 1 w# s_at_f [0] $end
$var wire 1 x# state [7] $end
$var wire 1 y# state [6] $end
$var wire 1 z# state [5] $end
$var wire 1 {# state [4] $end
$var wire 1 |# state [3] $end
$var wire 1 }# state [2] $end
$var wire 1 ~# state [1] $end
$var wire 1 !$ state [0] $end
$var wire 1 "$ last_state [7] $end
$var wire 1 #$ last_state [6] $end
$var wire 1 $$ last_state [5] $end
$var wire 1 %$ last_state [4] $end
$var wire 1 &$ last_state [3] $end
$var wire 1 '$ last_state [2] $end
$var wire 1 ($ last_state [1] $end
$var wire 1 )$ last_state [0] $end
$var wire 1 *$ f [7] $end
$var wire 1 +$ f [6] $end
$var wire 1 ,$ f [5] $end
$var wire 1 -$ f [4] $end
$var wire 1 .$ f [3] $end
$var wire 1 /$ f [2] $end
$var wire 1 0$ f [1] $end
$var wire 1 1$ f [0] $end
$upscope $end
$upscope $end
$enddefinitions $end
#0
$dumpvars
0!
b0 "
b1010010 #
0$
1%
0-
0,
0+
0*
0)
0(
0'
0&
05
04
03
02
01
00
0/
0.
06
0>
0=
0<
0;
0:
09
08
07
0F
0E
0D
0C
0B
0A
0@
0?
0N
0M
0L
0K
0J
0I
0H
0G
0O
0P
0Q
1R
xS
1T
1U
1V
0W
0X
0Y
0Z
0[
0\
0]
0^
0_
0`
0a
0b
0c
0d
0e
0f
0g
0h
0i
0j
0k
0l
0m
0n
0o
0p
0q
0r
0s
0t
0u
0v
0w
0x
0y
0z
0{
0|
0}
0~
0!!
0"!
0#!
0$!
0%!
0&!
1'!
0(!
0)!
0*!
0+!
0,!
0-!
0.!
0/!
00!
11!
12!
13!
14!
05!
06!
17!
08!
19!
0:!
0;!
0<!
0=!
0>!
0?!
0@!
0A!
0B!
0C!
0D!
0E!
0F!
0G!
0H!
0I!
1J!
0K!
0L!
0M!
0N!
0O!
1P!
0Q!
1R!
0S!
0T!
0U!
0V!
0W!
0X!
1Y!
0Z!
1[!
1\!
1]!
0^!
0_!
0`!
1a!
0b!
0c!
0d!
0e!
0f!
0g!
0h!
1i!
0j!
1k!
1l!
1m!
1n!
1o!
0p!
0q!
0r!
0s!
1t!
0u!
1v!
1w!
0x!
1y!
0z!
1{!
0|!
1}!
0~!
0!"
0""
0#"
0$"
0%"
0&"
0'"
0("
0)"
0*"
1+"
1,"
0-"
0."
0/"
00"
01"
02"
13"
04"
05"
06"
07"
08"
09"
0:"
0;"
0<"
0="
0>"
0?"
0@"
0A"
0B"
1C"
0D"
0E"
0F"
0G"
0H"
0I"
0J"
0K"
0L"
0M"
0N"
0O"
0P"
0Q"
0R"
0S"
0T"
0U"
0V"
0W"
0X"
0Y"
0Z"
0["
0\"
0]"
0^"
0_"
0`"
0a"
0b"
0c"
0d"
0e"
0f"
0g"
0h"
0i"
0j"
0k"
0l"
0m"
0n"
0o"
0p"
0q"
0r"
0s"
0t"
0u"
0v"
0w"
0x"
0y"
0z"
0{"
0|"
0}"
0~"
0!#
0"#
0##
0$#
0%#
0&#
0'#
0(#
0)#
0*#
0+#
0,#
0-#
0.#
0/#
00#
01#
02#
03#
04#
05#
06#
07#
08#
09#
0:#
0;#
0<#
0=#
0>#
0?#
0G#
0F#
0E#
0D#
0C#
0B#
0A#
0@#
0O#
0N#
0M#
0L#
0K#
0J#
0I#
0H#
0W#
0V#
0U#
0T#
0S#
0R#
0Q#
0P#
0_#
0^#
0]#
0\#
0[#
0Z#
0Y#
0X#
0g#
0f#
0e#
0d#
0c#
0b#
0a#
0`#
0o#
0n#
0m#
0l#
0k#
0j#
0i#
0h#
0w#
0v#
0u#
0t#
0s#
0r#
0q#
0p#
0!$
0~#
0}#
0|#
0{#
0z#
0y#
0x#
0)$
0($
0'$
0&$
0%$
0$$
0#$
0"$
01$
00$
0/$
0.$
0-$
0,$
0+$
0*$
$end
#5000
1!
1$!
1|#
1H"
1D"
18"
17"
15"
1."
1&"
1|!
0y!
0n!
1:!
01!
1z!
1("
19"
0t!
12"
#10000
0%
0!
0l!
0$!
0m!
#15000
1!
1$!
1&$
1z#
1x#
0|#
04!
1.!
1&#
0H"
07"
05"
11"
0."
0|!
1y!
1K!
0:!
11!
09"
1/"
0+"
0("
1q!
0a!
03"
0{!
0v!
03!
1L!
01"
0z!
02"
1`!
#20000
b1 "
0!
1N!
0$!
#25000
1!
1$!
1g#
1$$
0&$
1"$
0z#
0x#
1{#
14!
0.!
1L"
10"
0,"
0w!
0q!
1m!
0L!
09!
0&#
0D"
1a!
0K!
08"
13"
0&"
1{!
13!
1I"
0C"
1J"
1n!
0y!
1M"
1t!
#30000
0!
0$!
#35000
1!
1$!
0$$
0"$
1%$
1K"
1|#
1b
15!
1+"
0J"
18"
1."
1&"
1$"
1x!
0n!
1h!
01!
1/!
1-
1-"
1,"
0`!
0t!
12"
#40000
b11 "
b10 "
0!
0N!
1Q!
0$!
#45000
1!
1$!
1&$
1z#
0|#
0{#
04!
1.!
19"
00"
0/"
1("
0$"
0x!
1w!
0h!
19!
0/!
0."
1n!
11!
03"
0-"
0+"
0{!
03!
0I"
1)"
10!
1y!
11"
02"
1t!
00!
0)"
12"
#50000
0!
0$!
#55000
1!
1$!
1^#
1$$
0&$
0%$
1|#
1*"
1j!
05!
14!
0.!
1H"
08"
15"
1."
1'"
0&"
0y!
0n!
1K!
01!
1Q"
1O"
1L!
0("
09"
0t!
1`!
#60000
b11 "
0!
1N!
0$!
#65000
1!
1$!
1n#
1&$
0|#
1{#
0*"
0j!
04!
1X"
1J"
0H"
05"
10"
1/"
0,"
1("
0w!
0L!
09!
18"
0."
0'"
1&"
1y!
1n!
0K!
11!
1R"
0Q"
0("
0y!
01"
1Y"
1t!
02"
#70000
0!
0$!
#75000
1!
1$!
0&$
1%$
1S"
0K"
0z#
1|#
0b
1c
1*"
1j!
15!
14!
0J"
1."
1$"
1x!
0n!
1h!
01!
1/!
13"
1{!
13!
1,
0-
0R"
1I"
16!
1-"
0`!
12"
1`!
#80000
b111 "
b11010010 #
b10010010 #
b10110010 #
b10100010 #
b10101010 #
b10101110 #
b10101111 #
b101 "
b100 "
0!
1M!
1S!
1V!
0Y!
1)!
0'!
1c!
0N!
0Q!
1T!
0$!
1e!
0}!
1+!
0[!
1X!
1U!
1O!
#85000
1!
1$!
0$$
1&$
1z#
0*"
0j!
06!
04!
1.!
08"
17"
03"
0-"
1'"
0&"
0{!
0x!
1K!
03!
1R"
0I"
1)"
10!
1("
02"
0t!
0`!
#90000
0!
0$!
#95000
1!
1$!
1$$
1U#
0z#
1y#
0|#
0{#
1!$
1a
0.!
00"
0/"
0."
0'"
0$"
1r!
0o!
0a!
0J!
11!
07"
1,"
0("
1q!
0m!
0h!
1L!
0/!
1n!
0K!
1,!
1p!
1-"
16
0R"
0)"
1W"
1s!
1:"
0L!
0n!
0-"
12"
00!
1t!
1`!
1)"
02"
0`!
#100000
b101 "
0!
1N!
0$!
#105000
1!
1$!
0$$
0&$
1)$
1#$
0%$
1<"
1|#
0!$
0a
1Z
05!
0i!
1+"
0:"
18"
15"
1/"
1&"
1w!
0r!
1o!
1a!
1J!
01!
1K!
0,!
14
06
1I"
1L!
1J"
1("
0)"
1`!
#110000
0!
0$!
#115000
1!
1$!
1&$
0)$
0S"
1K"
0y#
1{#
1b
0c
1i!
1-!
1.!
0J"
05"
10"
0,"
0("
1$"
1x!
0w!
0q!
1m!
1h!
0L!
1/!
13"
1."
1{!
0p!
0K!
13!
0,
1-
16!
0s!
1-"
1%"
10!
0`!
1)"
0t!
1`!
#120000
b111 "
b110 "
0!
0N!
1Q!
0$!
#125000
1!
1$!
0#$
1%$
1y#
0|#
1!$
1a
15!
0-!
08"
00"
0/"
0."
0&"
0$"
0{!
0x!
1r!
0o!
0a!
0J!
11!
1n!
0h!
0/!
1,!
03"
1p!
0m!
03!
16
0I"
12"
06!
0n!
1s!
1:"
0-"
0%"
1t!
00!
02"
#130000
0!
0$!
#135000
1!
1$!
0&$
1)$
1#$
1="
0<"
1|#
0!$
0a
0Z
1[
0i!
0.!
0:"
18"
10"
1&"
1$"
1x!
0r!
1o!
1a!
1J!
01!
1h!
1K!
0,!
13
04
06
1I"
0s!
1F"
1-"
0`!
12"
0t!
#140000
b111 "
0!
1N!
0$!
#145000
1!
1$!
1/$
10$
1&$
0)$
1z#
0|#
0{#
1i!
1.!
1J"
00"
1/"
1,"
1("
0$"
0x!
1w!
1m!
0h!
1L!
11"
11!
0-"
0+"
1{!
0p!
1&!
1R"
1Z"
0I"
0F"
1n!
01"
1`!
0)"
02"
1t!
#150000
0!
0$!
#155000
1!
1$!
1$$
0&$
0%$
1["
1S"
0K"
0z#
0y#
1|#
1{#
0b
1c
1d
1*"
1j!
05!
1-!
0.!
0J"
10"
0,"
0("
1$"
1x!
0w!
1h!
0L!
1/!
1."
0n!
0K!
01!
13"
13!
0&!
1+
1,
0-
0Z"
0R"
1I"
1-"
1%"
0`!
1)"
12"
#160000
b1111 "
b10101101 #
b1011 "
b101101 #
b1101101 #
b1111101 #
b1110101 #
b1110001 #
b1001 "
b1000 "
0!
0P!
0S!
0V!
1Y!
1'!
0c!
0N!
0Q!
0T!
1W!
0$!
0e!
1}!
1[!
0X!
0U!
0R!
#165000
1!
1$!
0$$
1&$
0#$
1%$
1z#
1y#
0{#
0*"
0j!
15!
0-!
16!
1.!
15"
00"
1,"
1("
0$"
1|!
0x!
1w!
0h!
0/!
03"
0."
1K!
03!
1&!
08"
0-"
1'"
0&"
10!
0("
06!
1L!
11"
0%"
02"
0t!
00!
0)"
1)"
12"
1`!
#170000
0!
0$!
#175000
1!
1$!
1t#
1$$
1#$
0%$
0|#
1{#
1v!
05!
1-!
0.!
05"
10"
0/"
0,"
1("
0|!
0w!
1b!
0L!
18"
01"
0'"
1&"
1n!
11!
1X!
1Z"
1R"
0I"
0("
11"
1t!
02"
0)"
12"
1)"
#180000
b1001 "
0!
1N!
0$!
#185000
1!
1$!
0&$
1%$
1I#
1|#
1J#
1K#
1L#
1O#
15!
0-!
1%"
0]!
0\!
1f!
08"
01"
1'"
0&"
1$"
0n!
1h!
0b!
01!
0Z"
0R"
1I"
1z!
1("
1!"
0%"
0`!
0t!
02"
0)"
#190000
0!
0$!
#195000
1!
1$!
1&$
0z#
0y#
1x#
0|#
0{#
00"
1/"
1,"
0("
0$"
1w!
0h!
1L!
19!
0'"
1n!
02!
11!
0a!
13"
13!
0&!
1-"
17#
1y!
0-"
1t!
1`!
0z!
#200000
b1011 "
b1010 "
0!
0N!
1Q!
0$!
#205000
1!
1$!
0$$
0&$
1"$
0#$
0%$
1>#
1=#
1<#
1;#
18#
0x#
1|#
1{#
1z
1}
1~
1!!
1"!
0v!
1j!
05!
14!
1u!
1+"
10"
0,"
1$"
1x!
0w!
1h!
0L!
09!
1/!
07#
1D"
18"
1."
1&"
0y!
0n!
0K!
1:!
12!
01!
1a!
1@
1A
1B
1C
1F
1z!
0D"
0:!
1-"
1v!
0`!
0z!
1z!
#210000
0!
0$!
#215000
1!
1$!
1&$
0"$
1%$
1x#
0{#
0j!
15!
0u!
04!
1.!
1H"
17"
15"
00"
1,"
0$"
0x!
1w!
0h!
19!
0/!
0+"
0a!
11!
0H"
07"
1:!
0-"
0t!
12"
#220000
b1011 "
0!
1N!
0$!
#225000
1!
1$!
1"$
0%$
1z#
0|#
1G#
0v!
05!
1u!
1;!
1&#
1D"
05"
0."
1y!
1n!
1K!
0:!
03"
0{!
1q!
0m!
03!
07!
1R"
0I"
0n!
1L!
1<!
1t!
0z!
02"
1`!
0t!
#230000
0!
0$!
#235000
1!
1$!
1f#
0g#
1$$
0&$
1/#
1'#
0z#
0x#
1{#
1j
1r
14!
0.!
0u!
0L"
1T"
10"
0,"
0w!
0q!
1m!
0L!
09!
0&#
0D"
1a!
0K!
08"
13"
0&"
1{!
13!
1>
1N
1C"
0M"
0T"
1J"
1n!
0y!
1M"
1U"
0U"
1t!
#240000
b1110000 #
b1111 "
b11110000 #
b11100000 #
b11100100 #
b1101 "
b1100 "
0!
0M!
1S!
0Y!
1c!
0N!
0Q!
1T!
0$!
1e!
0[!
1U!
0O!
#245000
1!
1$!
0$$
0"$
1%$
0["
1|#
0d
15!
1+"
0J"
18"
1."
1&"
1$"
1x!
0n!
1h!
01!
1/!
0+
1-"
1,"
0`!
0t!
12"
#250000
0!
0$!
#255000
1!
1$!
1&$
1z#
0|#
0{#
04!
1.!
19"
00"
0/"
1("
0$"
0x!
1w!
0h!
19!
0/!
0."
1n!
11!
03"
0-"
0+"
0{!
03!
1)"
10!
1y!
11"
02"
1t!
00!
0)"
12"
#260000
b1101 "
0!
1N!
0$!
#265000
1!
1$!
1\#
1]#
0^#
1_#
1$$
0&$
0%$
1|#
1*"
1j!
05!
14!
0.!
0X"
1`"
1^"
1H"
08"
15"
1."
1'"
0&"
0y!
0n!
1K!
01!
1G"
1E"
1Q"
0O"
0Y"
0W"
1a"
1_"
0`"
1h"
1f"
1L!
0("
09"
1Y"
0a"
0_"
0t!
0h"
1a"
1i"
1g"
1`!
0i"
#270000
0!
0$!
#275000
1!
1$!
1l#
1m#
1o#
1&$
0|#
1{#
0*"
0j!
04!
1P"
1`"
1h"
1J"
0H"
05"
10"
1/"
0,"
1("
0w!
0L!
09!
18"
0."
0'"
1&"
1y!
1n!
0K!
11!
1I"
0G"
1Z"
0Y"
1b"
0a"
1X"
0("
0y!
01"
0Q"
1a"
1i"
1t!
1Y"
02"
#280000
b1111 "
b1110 "
0!
0N!
1Q!
0$!
#285000
1!
1$!
0&$
1%$
1c"
1["
1K"
0z#
1|#
1b
1d
1e
1*"
1j!
15!
14!
0J"
1."
1$"
1x!
0n!
1h!
01!
1/!
13"
1{!
13!
1*
1+
1-
0b"
0Z"
0I"
16!
1-"
0`!
12"
1`!
#290000
0!
0$!
