template_de1soc/simulation/qsim/rc4.msim.vcd
$comment
	File created using the following command:
		vcd file rc4.msim.vcd -direction
$end
$date
	Wed Jun 12 15:05:08 2024
$end
$version
	ModelSim Version 10.5b
$end
$timescale
	1ps
$end

$scope module s_memory_init_tb_vlg_vec_tst $end
$var reg 1 ! clk $end
$var reg 1 " reset $end
$var reg 1 # start $end
$var wire 1 $ address [7] $end
$var wire 1 % address [6] $end
$var wire 1 & address [5] $end
$var wire 1 ' address [4] $end
$var wire 1 ( address [3] $end
$var wire 1 ) address [2] $end
$var wire 1 * address [1] $end
$var wire 1 + address [0] $end
$var wire 1 , data [7] $end
$var wire 1 - data [6] $end
$var wire 1 . data [5] $end
$var wire 1 / data [4] $end
$var wire 1 0 data [3] $end
$var wire 1 1 data [2] $end
$var wire 1 2 data [1] $end
$var wire 1 3 data [0] $end
$var wire 1 4 finish $end
$var wire 1 5 write_enable $end

$scope module i1 $end
$var wire 1 6 gnd $end
$var wire 1 7 vcc $end
$var wire 1 8 unknown $end
$var tri1 1 9 devclrn $end
$var tri1 1 : devpor $end
$var tri1 1 ; devoe $end
$var wire 1 < ~QUARTUS_CREATED_GND~I_combout $end
$var wire 1 = TD_CLK27~ibuf_o $end
$var wire 1 > TD_CLK27~padout $end
$var wire 1 ? TD_RESET_N~padout $end
$var wire 1 @ TD_RESET_N~obuf_o $end
$var wire 1 A clk~input_o $end
$var wire 1 B clk~inputCLKENA0_outclk $end
$var wire 1 C MUT|Add0~1_sumout $end
$var wire 1 D reset~input_o $end
$var wire 1 E MUT|Add0~2 $end
$var wire 1 F MUT|Add0~5_sumout $end
$var wire 1 G start~input_o $end
$var wire 1 H MUT|state[1]~feeder_combout $end
$var wire 1 I MUT|Equal0~0_combout $end
$var wire 1 J MUT|Selector8~0_combout $end
$var wire 1 K MUT|state[0]~feeder_combout $end
$var wire 1 L MUT|count[0]~1_combout $end
$var wire 1 M MUT|Add0~6 $end
$var wire 1 N MUT|Add0~9_sumout $end
$var wire 1 O MUT|Add0~10 $end
$var wire 1 P MUT|Add0~13_sumout $end
$var wire 1 Q MUT|Add0~14 $end
$var wire 1 R MUT|Add0~17_sumout $end
$var wire 1 S MUT|Add0~18 $end
$var wire 1 T MUT|Add0~21_sumout $end
$var wire 1 U MUT|Add0~22 $end
$var wire 1 V MUT|Add0~25_sumout $end
$var wire 1 W MUT|Add0~26 $end
$var wire 1 X MUT|Add0~29_sumout $end
$var wire 1 Y MUT|count[0]~0_combout $end
$var wire 1 Z MUT|count [7] $end
$var wire 1 [ MUT|count [6] $end
$var wire 1 \ MUT|count [5] $end
$var wire 1 ] MUT|count [4] $end
$var wire 1 ^ MUT|count [3] $end
$var wire 1 _ MUT|count [2] $end
$var wire 1 ` MUT|count [1] $end
$var wire 1 a MUT|count [0] $end
$var wire 1 b MUT|state [1] $end
$var wire 1 c MUT|state [0] $end
$upscope $end
$upscope $end
$enddefinitions $end
#0
$dumpvars
0!
0"
1#
0+
0*
0)
0(
0'
0&
0%
0$
03
02
01
00
0/
0.
0-
0,
14
05
06
17
x8
19
1:
1;
0<
z=
z>
z?
z@
0A
0B
1C
0D
0E
0F
1G
1H
0I
1J
1K
1L
0M
0N
0O
0P
0Q
0R
0S
0T
0U
0V
0W
0X
1Y
0a
0`
0_
0^
0]
0\
0[
0Z
0c
0b
$end
#10000
1!
1A
1B
1c
1b
15
04
0Y
#20000
0!
0A
0B
#30000
1!
1A
1B
1a
1+
13
1E
0C
1F
#40000
0!
0A
0B
#50000
1!
1A
1B
0a
1`
1*
12
0+
03
1M
0E
0F
1C
0M
1N
1F
0N
#60000
0!
0A
0B
#70000
1!
1A
1B
1a
1+
13
1E
0C
1M
0F
1N
#80000
0!
0A
0B
#90000
1!
1A
1B
0a
1_
0`
0*
02
1)
11
0+
03
0M
1O
0E
1F
0N
1C
0O
1N
1P
0F
0P
#100000
0!
0A
0B
#110000
0#
1!
0G
1A
1B
1a
1+
13
1E
0C
1F
#120000
0!
0A
0B
#130000
1!
1A
1B
0a
1`
1*
12
0+
03
1M
0E
0F
1C
1O
0M
0N
1F
0O
1P
1N
0P
#140000
0!
0A
0B
#150000
1!
1A
1B
1a
1+
13
1E
0C
1M
0F
1O
0N
1P
#160000
0!
0A
0B
#170000
1"
1!
1D
1A
1B
0c
0b
0`
0_
0a
0+
03
0)
01
0*
02
05
14
1Y
0L
0J
0E
0O
0M
1C
1N
1F
0F
0P
0N
0K
0H
#180000
0!
0A
0B
#190000
0"
1!
0D
1A
1B
#200000
0!
0A
0B
#210000
1!
1A
1B
#220000
0!
0A
0B
#230000
1!
1A
1B
#240000
0!
0A
0B
#250000
1!
1A
1B
#260000
1#
0!
1G
0A
0B
1L
1J
1K
1H
#270000
1!
1A
1B
1c
1b
15
04
0Y
#280000
0#
0!
0G
0A
0B
#290000
1!
1A
1B
1a
1+
13
1E
0C
1F
#300000
0!
0A
0B
#310000
1!
1A
1B
0a
1`
1*
12
0+
03
1M
0E
0F
1C
0M
1N
1F
0N
#320000
0!
0A
0B
#330000
1!
1A
1B
1a
1+
13
1E
0C
1M
0F
1N
#340000
0!
0A
0B
#350000
1!
1A
1B
0a
1_
0`
0*
02
1)
11
0+
03
0M
1O
0E
1F
0N
1C
0O
1N
1P
0F
0P
#360000
0!
0A
0B
#370000
1!
1A
1B
1a
1+
13
1E
0C
1F
#380000
0!
0A
0B
#390000
1!
1A
1B
0a
1`
1*
12
0+
03
1M
0E
0F
1C
1O
0M
0N
1F
0O
1P
1N
0P
#400000
0!
0A
0B
#410000
1!
1A
1B
1a
1+
13
1E
0C
1M
0F
1O
0N
1P
#420000
0!
0A
0B
#430000
1!
1A
1B
0a
1^
0_
0`
0*
02
0)
01
1(
10
0+
03
0M
0O
1Q
0E
1F
1N
0P
1C
0Q
0N
1P
1R
0F
0R
#440000
0!
0A
0B
#450000
1!
1A
1B
1a
1+
13
1E
0C
1F
#460000
0!
0A
0B
#470000
1!
1A
1B
0a
1`
1*
12
0+
03
1M
0E
0F
1C
0M
1N
1F
0N
#480000
0!
0A
0B
#490000
1!
1A
1B
1a
1+
13
1E
0C
1M
0F
1N
#500000
0!
0A
0B
#510000
1!
1A
1B
0a
1_
0`
0*
02
1)
11
0+
03
0M
1O
0E
1F
0N
1C
0O
1Q
1N
0P
0F
0Q
1P
1R
0R
#520000
0!
0A
0B
#530000
1!
1A
1B
1a
1+
13
1E
0C
1F
#540000
0!
0A
0B
#550000
1!
1A
1B
0a
1`
1*
12
0+
03
1M
0E
0F
1C
1O
0M
0N
1F
1Q
0O
0P
1N
0Q
1R
1P
0R
#560000
0!
0A
0B
#570000
1!
1A
1B
1a
1+
13
1I
1E
0C
1M
1Y
0J
0F
1O
0N
0K
0H
1Q
0P
1R
#580000
0!
0A
0B
#590000
1!
1A
1B
0c
0a
0^
0_
0`
0b
05
0*
02
0)
01
0(
00
0+
03
14
0L
0I
0M
0O
0Q
0E
1F
1N
1P
1C
0N
0P
0R
0F
#600000
0!
0A
0B
#610000
1!
1A
1B
#620000
0!
0A
0B
#630000
1!
1A
1B
#640000
0!
0A
0B
#650000
1!
1A
1B
#660000
0!
0A
0B
#670000
1!
1A
1B
#680000
0!
0A
0B
#690000
1!
1A
1B
#700000
0!
0A
0B
#710000
1!
1A
1B
#720000
0!
0A
0B
#730000
1!
1A
1B
#740000
0!
0A
0B
#750000
1!
1A
1B
#760000
0!
0A
0B
#770000
1!
1A
1B
#780000
0!
0A
0B
#790000
1!
1A
1B
#800000
0!
0A
0B
#810000
1!
1A
1B
#820000
0!
0A
0B
#830000
1!
1A
1B
#840000
0!
0A
0B
#850000
1!
1A
1B
#860000
0!
0A
0B
#870000
1!
1A
1B
#880000
0!
0A
0B
#890000
1!
1A
1B
#900000
0!
0A
0B
#910000
1!
1A
1B
#920000
0!
0A
0B
#930000
1!
1A
1B
#940000
0!
0A
0B
#950000
1!
1A
1B
#960000
0!
0A
0B
#970000
1!
1A
1B
#980000
0!
0A
0B
#990000
1!
1A
1B
