template_de1soc/simulation/qsim/rc4.msim.vcd
$comment
	File created using the following command:
		vcd file rc4.msim.vcd -direction
$end
$date
	Thu Jun 13 15:34:24 2024
$end
$version
	ModelSim Version 10.5b
$end
$timescale
	1ps
$end

$scope module shuffle_memory_with_key_vlg_vec_tst $end
$var reg 1 ! clk $end
$var reg 24 " secret_key [23:0] $end
$var reg 8 # shuffle_q [7:0] $end
$var reg 1 $ start $end
$var wire 1 % finish $end
$var wire 1 & secret_key_byte_debug [7] $end
$var wire 1 ' secret_key_byte_debug [6] $end
$var wire 1 ( secret_key_byte_debug [5] $end
$var wire 1 ) secret_key_byte_debug [4] $end
$var wire 1 * secret_key_byte_debug [3] $end
$var wire 1 + secret_key_byte_debug [2] $end
$var wire 1 , secret_key_byte_debug [1] $end
$var wire 1 - secret_key_byte_debug [0] $end
$var wire 1 . shuffle_address [7] $end
$var wire 1 / shuffle_address [6] $end
$var wire 1 0 shuffle_address [5] $end
$var wire 1 1 shuffle_address [4] $end
$var wire 1 2 shuffle_address [3] $end
$var wire 1 3 shuffle_address [2] $end
$var wire 1 4 shuffle_address [1] $end
$var wire 1 5 shuffle_address [0] $end
$var wire 1 6 shuffle_data [7] $end
$var wire 1 7 shuffle_data [6] $end
$var wire 1 8 shuffle_data [5] $end
$var wire 1 9 shuffle_data [4] $end
$var wire 1 : shuffle_data [3] $end
$var wire 1 ; shuffle_data [2] $end
$var wire 1 < shuffle_data [1] $end
$var wire 1 = shuffle_data [0] $end
$var wire 1 > shuffle_wren $end

$scope module i1 $end
$var wire 1 ? gnd $end
$var wire 1 @ vcc $end
$var wire 1 A unknown $end
$var tri1 1 B devclrn $end
$var tri1 1 C devpor $end
$var tri1 1 D devoe $end
$var wire 1 E finish~output_o $end
$var wire 1 F shuffle_data[0]~output_o $end
$var wire 1 G shuffle_data[1]~output_o $end
$var wire 1 H shuffle_data[2]~output_o $end
$var wire 1 I shuffle_data[3]~output_o $end
$var wire 1 J shuffle_data[4]~output_o $end
$var wire 1 K shuffle_data[5]~output_o $end
$var wire 1 L shuffle_data[6]~output_o $end
$var wire 1 M shuffle_data[7]~output_o $end
$var wire 1 N shuffle_address[0]~output_o $end
$var wire 1 O shuffle_address[1]~output_o $end
$var wire 1 P shuffle_address[2]~output_o $end
$var wire 1 Q shuffle_address[3]~output_o $end
$var wire 1 R shuffle_address[4]~output_o $end
$var wire 1 S shuffle_address[5]~output_o $end
$var wire 1 T shuffle_address[6]~output_o $end
$var wire 1 U shuffle_address[7]~output_o $end
$var wire 1 V shuffle_wren~output_o $end
$var wire 1 W secret_key_byte_debug[0]~output_o $end
$var wire 1 X secret_key_byte_debug[1]~output_o $end
$var wire 1 Y secret_key_byte_debug[2]~output_o $end
$var wire 1 Z secret_key_byte_debug[3]~output_o $end
$var wire 1 [ secret_key_byte_debug[4]~output_o $end
$var wire 1 \ secret_key_byte_debug[5]~output_o $end
$var wire 1 ] secret_key_byte_debug[6]~output_o $end
$var wire 1 ^ secret_key_byte_debug[7]~output_o $end
$var wire 1 _ clk~input_o $end
$var wire 1 ` Add2~1_sumout $end
$var wire 1 a state[2]~0_combout $end
$var wire 1 b Add2~10 $end
$var wire 1 c Add2~25_sumout $end
$var wire 1 d Equal0~1_combout $end
$var wire 1 e i[4]~0_combout $end
$var wire 1 f Equal0~0_combout $end
$var wire 1 g Mux10~0_combout $end
$var wire 1 h start~input_o $end
$var wire 1 i state[2]~4_combout $end
$var wire 1 j state[2]~5_combout $end
$var wire 1 k state[1]~3_combout $end
$var wire 1 l state[0]~2_combout $end
$var wire 1 m state[3]~6_combout $end
$var wire 1 n Add2~2 $end
$var wire 1 o Add2~5_sumout $end
$var wire 1 p Add2~6 $end
$var wire 1 q Add2~17_sumout $end
$var wire 1 r Add2~18 $end
$var wire 1 s Add2~29_sumout $end
$var wire 1 t Add2~30 $end
$var wire 1 u Add2~21_sumout $end
$var wire 1 v Add2~22 $end
$var wire 1 w Add2~13_sumout $end
$var wire 1 x Add2~14 $end
$var wire 1 y Add2~9_sumout $end
$var wire 1 z state[4]~1_combout $end
$var wire 1 { shuffle_q[0]~input_o $end
$var wire 1 | Decoder0~0_combout $end
$var wire 1 } Decoder0~1_combout $end
$var wire 1 ~ shuffle_data[1]~0_combout $end
$var wire 1 !! shuffle_data[0]~reg0_q $end
$var wire 1 "! shuffle_q[1]~input_o $end
$var wire 1 #! shuffle_data[1]~reg0_q $end
$var wire 1 $! shuffle_q[2]~input_o $end
$var wire 1 %! shuffle_data[2]~reg0_q $end
$var wire 1 &! shuffle_q[3]~input_o $end
$var wire 1 '! shuffle_data[3]~reg0_q $end
$var wire 1 (! shuffle_q[4]~input_o $end
$var wire 1 )! shuffle_data[4]~reg0_q $end
$var wire 1 *! shuffle_q[5]~input_o $end
$var wire 1 +! shuffle_data[5]~reg0_q $end
$var wire 1 ,! shuffle_q[6]~input_o $end
$var wire 1 -! shuffle_data[6]~reg0_q $end
$var wire 1 .! shuffle_q[7]~input_o $end
$var wire 1 /! shuffle_data[7]~reg0_q $end
$var wire 1 0! secret_key[8]~input_o $end
$var wire 1 1! Mod0|auto_generated|divider|divider|op_6~1_sumout $end
$var wire 1 2! Mod0|auto_generated|divider|divider|op_4~1_sumout $end
$var wire 1 3! Mod0|auto_generated|divider|divider|op_2~1_sumout $end
$var wire 1 4! Mod0|auto_generated|divider|divider|op_2~2 $end
$var wire 1 5! Mod0|auto_generated|divider|divider|op_2~10 $end
$var wire 1 6! Mod0|auto_generated|divider|divider|op_2~5_sumout $end
$var wire 1 7! Mod0|auto_generated|divider|divider|StageOut[3]~8_combout $end
$var wire 1 8! Mod0|auto_generated|divider|divider|op_2~9_sumout $end
$var wire 1 9! Mod0|auto_generated|divider|divider|op_3~6 $end
$var wire 1 :! Mod0|auto_generated|divider|divider|op_3~14 $end
$var wire 1 ;! Mod0|auto_generated|divider|divider|op_3~10_cout $end
$var wire 1 <! Mod0|auto_generated|divider|divider|op_3~1_sumout $end
$var wire 1 =! Mod0|auto_generated|divider|divider|op_3~13_sumout $end
$var wire 1 >! Mod0|auto_generated|divider|divider|StageOut[3]~9_combout $end
$var wire 1 ?! Mod0|auto_generated|divider|divider|op_3~5_sumout $end
$var wire 1 @! Mod0|auto_generated|divider|divider|op_4~2 $end
$var wire 1 A! Mod0|auto_generated|divider|divider|op_4~10 $end
$var wire 1 B! Mod0|auto_generated|divider|divider|op_4~14_cout $end
$var wire 1 C! Mod0|auto_generated|divider|divider|op_4~5_sumout $end
$var wire 1 D! Mod0|auto_generated|divider|divider|StageOut[9]~4_combout $end
$var wire 1 E! Mod0|auto_generated|divider|divider|StageOut[6]~6_combout $end
$var wire 1 F! Mod0|auto_generated|divider|divider|op_4~9_sumout $end
$var wire 1 G! Mod0|auto_generated|divider|divider|StageOut[6]~7_combout $end
$var wire 1 H! Mod0|auto_generated|divider|divider|op_5~6 $end
$var wire 1 I! Mod0|auto_generated|divider|divider|op_5~14 $end
$var wire 1 J! Mod0|auto_generated|divider|divider|op_5~10_cout $end
$var wire 1 K! Mod0|auto_generated|divider|divider|op_5~1_sumout $end
$var wire 1 L! Mod0|auto_generated|divider|divider|op_5~13_sumout $end
$var wire 1 M! Mod0|auto_generated|divider|divider|StageOut[9]~5_combout $end
$var wire 1 N! Mod0|auto_generated|divider|divider|op_5~5_sumout $end
$var wire 1 O! Mod0|auto_generated|divider|divider|op_6~2 $end
$var wire 1 P! Mod0|auto_generated|divider|divider|op_6~10 $end
$var wire 1 Q! Mod0|auto_generated|divider|divider|op_6~14_cout $end
$var wire 1 R! Mod0|auto_generated|divider|divider|op_6~5_sumout $end
$var wire 1 S! Mod0|auto_generated|divider|divider|StageOut[15]~0_combout $end
$var wire 1 T! Mod0|auto_generated|divider|divider|StageOut[12]~2_combout $end
$var wire 1 U! Mod0|auto_generated|divider|divider|op_6~9_sumout $end
$var wire 1 V! Mod0|auto_generated|divider|divider|StageOut[12]~3_combout $end
$var wire 1 W! Mod0|auto_generated|divider|divider|op_7~6 $end
$var wire 1 X! Mod0|auto_generated|divider|divider|op_7~14 $end
$var wire 1 Y! Mod0|auto_generated|divider|divider|op_7~10_cout $end
$var wire 1 Z! Mod0|auto_generated|divider|divider|op_7~1_sumout $end
$var wire 1 [! Mod0|auto_generated|divider|divider|op_7~13_sumout $end
$var wire 1 \! Mod0|auto_generated|divider|divider|StageOut[15]~1_combout $end
$var wire 1 ]! Mod0|auto_generated|divider|divider|op_7~5_sumout $end
$var wire 1 ^! Mod0|auto_generated|divider|divider|op_8~6 $end
$var wire 1 _! Mod0|auto_generated|divider|divider|op_8~10 $end
$var wire 1 `! Mod0|auto_generated|divider|divider|op_8~14_cout $end
$var wire 1 a! Mod0|auto_generated|divider|divider|op_8~1_sumout $end
$var wire 1 b! Mod0|auto_generated|divider|divider|op_8~5_sumout $end
$var wire 1 c! Mux0~0_combout $end
$var wire 1 d! Mod0|auto_generated|divider|divider|op_8~9_sumout $end
$var wire 1 e! Mux0~2_combout $end
$var wire 1 f! secret_key[16]~input_o $end
$var wire 1 g! secret_key[0]~input_o $end
$var wire 1 h! Mux7~0_combout $end
$var wire 1 i! Add0~1_sumout $end
$var wire 1 j! j[3]~0_combout $end
$var wire 1 k! shuffle_address[4]~0_combout $end
$var wire 1 l! shuffle_address[0]~reg0_q $end
$var wire 1 m! secret_key[9]~input_o $end
$var wire 1 n! secret_key[17]~input_o $end
$var wire 1 o! secret_key[1]~input_o $end
$var wire 1 p! Mux6~0_combout $end
$var wire 1 q! Add0~2 $end
$var wire 1 r! Add0~3 $end
$var wire 1 s! Add0~5_sumout $end
$var wire 1 t! shuffle_address[1]~reg0_q $end
$var wire 1 u! secret_key[10]~input_o $end
$var wire 1 v! secret_key[18]~input_o $end
$var wire 1 w! secret_key[2]~input_o $end
$var wire 1 x! Mux5~0_combout $end
$var wire 1 y! Add0~6 $end
$var wire 1 z! Add0~7 $end
$var wire 1 {! Add0~9_sumout $end
$var wire 1 |! shuffle_address[2]~reg0_q $end
$var wire 1 }! secret_key[11]~input_o $end
$var wire 1 ~! secret_key[19]~input_o $end
$var wire 1 !" secret_key[3]~input_o $end
$var wire 1 "" Mux4~0_combout $end
$var wire 1 #" Add0~10 $end
$var wire 1 $" Add0~11 $end
$var wire 1 %" Add0~13_sumout $end
$var wire 1 &" shuffle_address[3]~reg0_q $end
$var wire 1 '" secret_key[12]~input_o $end
$var wire 1 (" secret_key[20]~input_o $end
$var wire 1 )" secret_key[4]~input_o $end
$var wire 1 *" Mux3~0_combout $end
$var wire 1 +" Add0~14 $end
$var wire 1 ," Add0~15 $end
$var wire 1 -" Add0~17_sumout $end
$var wire 1 ." shuffle_address[4]~reg0_q $end
$var wire 1 /" secret_key[13]~input_o $end
$var wire 1 0" secret_key[21]~input_o $end
$var wire 1 1" secret_key[5]~input_o $end
$var wire 1 2" Mux2~0_combout $end
$var wire 1 3" Add0~18 $end
$var wire 1 4" Add0~19 $end
$var wire 1 5" Add0~21_sumout $end
$var wire 1 6" shuffle_address[5]~reg0_q $end
$var wire 1 7" secret_key[14]~input_o $end
$var wire 1 8" secret_key[22]~input_o $end
$var wire 1 9" secret_key[6]~input_o $end
$var wire 1 :" Mux1~0_combout $end
$var wire 1 ;" Add0~22 $end
$var wire 1 <" Add0~23 $end
$var wire 1 =" Add0~25_sumout $end
$var wire 1 >" shuffle_address[6]~reg0_q $end
$var wire 1 ?" secret_key[15]~input_o $end
$var wire 1 @" secret_key[23]~input_o $end
$var wire 1 A" secret_key[7]~input_o $end
$var wire 1 B" Mux0~1_combout $end
$var wire 1 C" Add0~26 $end
$var wire 1 D" Add0~27 $end
$var wire 1 E" Add0~29_sumout $end
$var wire 1 F" shuffle_address[7]~reg0_q $end
$var wire 1 G" i [7] $end
$var wire 1 H" i [6] $end
$var wire 1 I" i [5] $end
$var wire 1 J" i [4] $end
$var wire 1 K" i [3] $end
$var wire 1 L" i [2] $end
$var wire 1 M" i [1] $end
$var wire 1 N" i [0] $end
$var wire 1 O" j [7] $end
$var wire 1 P" j [6] $end
$var wire 1 Q" j [5] $end
$var wire 1 R" j [4] $end
$var wire 1 S" j [3] $end
$var wire 1 T" j [2] $end
$var wire 1 U" j [1] $end
$var wire 1 V" j [0] $end
$var wire 1 W" state [4] $end
$var wire 1 X" state [3] $end
$var wire 1 Y" state [2] $end
$var wire 1 Z" state [1] $end
$var wire 1 [" state [0] $end
$var wire 1 \" s_at_j [7] $end
$var wire 1 ]" s_at_j [6] $end
$var wire 1 ^" s_at_j [5] $end
$var wire 1 _" s_at_j [4] $end
$var wire 1 `" s_at_j [3] $end
$var wire 1 a" s_at_j [2] $end
$var wire 1 b" s_at_j [1] $end
$var wire 1 c" s_at_j [0] $end
$var wire 1 d" s_at_i [7] $end
$var wire 1 e" s_at_i [6] $end
$var wire 1 f" s_at_i [5] $end
$var wire 1 g" s_at_i [4] $end
$var wire 1 h" s_at_i [3] $end
$var wire 1 i" s_at_i [2] $end
$var wire 1 j" s_at_i [1] $end
$var wire 1 k" s_at_i [0] $end
$upscope $end
$upscope $end
$enddefinitions $end
#0
$dumpvars
0!
b1001001001 "
b0 #
0$
0%
0-
0,
0+
0*
0)
0(
0'
0&
05
04
03
02
01
00
0/
0.
0=
0<
0;
0:
09
08
07
06
0>
0?
1@
xA
1B
1C
1D
0E
0F
0G
0H
0I
0J
0K
0L
0M
0N
0O
0P
0Q
0R
0S
0T
0U
0V
0W
0X
0Y
0Z
0[
0\
0]
0^
0_
1`
0a
0b
0c
0d
0e
0f
0g
0h
1i
0j
0k
0l
0m
0n
0o
0p
0q
0r
0s
0t
0u
0v
0w
0x
0y
0z
0{
0|
0}
0~
0!!
0"!
0#!
0$!
0%!
0&!
0'!
0(!
0)!
0*!
0+!
0,!
0-!
0.!
0/!
00!
11!
12!
13!
04!
05!
16!
07!
08!
09!
0:!
0;!
1<!
0=!
0>!
1?!
0@!
0A!
0B!
1C!
0D!
0E!
0F!
0G!
0H!
0I!
0J!
1K!
0L!
0M!
1N!
0O!
0P!
0Q!
1R!
0S!
0T!
0U!
0V!
0W!
0X!
0Y!
1Z!
0[!
0\!
1]!
0^!
0_!
0`!
1a!
1b!
0c!
0d!
0e!
0f!
1g!
0h!
0i!
0j!
0k!
0l!
1m!
0n!
0o!
0p!
0q!
0r!
0s!
0t!
0u!
0v!
0w!
0x!
0y!
0z!
0{!
0|!
0}!
0~!
1!"
0""
0#"
0$"
0%"
0&"
0'"
0("
0)"
0*"
0+"
0,"
0-"
0."
0/"
00"
01"
02"
03"
04"
05"
06"
07"
08"
19"
0:"
0;"
0<"
0="
0>"
0?"
0@"
0A"
0B"
0C"
0D"
0E"
0F"
0N"
0M"
0L"
0K"
0J"
0I"
0H"
0G"
0V"
0U"
0T"
0S"
0R"
0Q"
0P"
0O"
0["
0Z"
0Y"
0X"
0W"
0c"
0b"
0a"
0`"
0_"
0^"
0]"
0\"
0k"
0j"
0i"
0h"
0g"
0f"
0e"
0d"
$end
#10000
1!
1_
#20000
b1 #
1$
0!
1h
1{
0_
0i
1k
#30000
1!
1_
1Z"
1j!
1g
1e
0k
1j
#40000
b11 #
b10 #
0$
0!
0h
0{
1"!
0_
#50000
1!
1_
0Z"
1Y"
1k!
1}
0e
0j!
1k
#60000
b11 #
0!
1{
0_
#70000
1!
1_
1j"
1k"
1Z"
1j!
0}
0g
1m
0k
1i!
1s!
0j
#80000
b111 #
b101 #
b100 #
0!
0{
0"!
1$!
0_
#90000
1!
1_
1X"
0Z"
0Y"
1U"
1V"
0k!
1|
0j!
1r!
1z!
1l
1k
0i!
0s!
1s!
1{!
#100000
b101 #
0!
1{
0_
#110000
1!
1_
1Z"
1a"
1c"
1["
1V
1~
0|
1g
1>
0k
1j
#120000
b111 #
b110 #
0!
0{
1"!
0_
#130000
1!
1_
0Z"
1Y"
1#!
1!!
1F
1G
1k!
1<
1=
0l
1k
#140000
b111 #
0!
1{
0_
#150000
1!
1_
1Z"
1%!
0#!
0["
0V
0G
1H
0k!
0~
0g
1e
1a
1;
0<
0>
0m
0k
#160000
b1111 #
b1011 #
b1001 #
b1000 #
0!
0{
0"!
0$!
1&!
0_
#170000
1!
1_
1N"
0X"
0Z"
1k!
1}
1g
0e
0a
1e!
1c!
1^!
0b!
1n
1k
0`
1d!
1o
1p!
1X
1y!
1,
0s!
1#"
0{!
1%"
#180000
b1001 #
0!
1{
0_
#190000
1!
1_
1h"
0j"
1Z"
1l!
1N
1j!
0}
0g
0y!
1+"
15
1m
0k
1s!
0%"
0#"
1{!
1-"
0j
0+"
1%"
0-"
#200000
b1011 #
b1010 #
0!
0{
1"!
0_
#210000
1!
1_
1X"
0Z"
0Y"
1S"
1T"
1t!
0V"
1O
0k!
1|
0j!
0r!
1#"
1,"
14
1l
1k
1i!
0{!
0%"
0s!
1%"
1-"
#220000
b1011 #
0!
1{
0_
#230000
1!
1_
1Z"
1`"
0a"
1b"
1["
1V
1~
0|
1g
1>
0k
1j
#240000
b1111 #
b1101 #
b1100 #
0!
0{
0"!
1$!
0_
#250000
1!
1_
0Z"
1Y"
1'!
0%!
0H
1I
1k!
1:
0;
0l
1k
#260000
b1101 #
0!
1{
0_
#270000
1!
1_
1Z"
0t!
1#!
0["
0V
1G
0O
0k!
0~
0g
1e
1a
04
1<
0>
0m
0k
#280000
b1111 #
b1110 #
0!
0{
1"!
0_
#290000
1!
1_
1M"
0N"
0X"
0Z"
1k!
1}
1g
0e
0a
0c!
0^!
1b!
0n
1_!
0d!
1W!
0]!
1p
1k
1`
0o
0_!
1d!
0p
1`!
1[!
1o
1q
1:"
1""
0p!
1h!
1W
0X
1Z
1]
0`!
0a!
1r!
0z!
1+"
1'
1*
0,
1-
0q
0i!
1s!
0%"
1="
1a!
1y!
0#"
13"
0e!
1c!
0s!
1{!
0-"
1#"
0+"
1e!
0c!
0{!
1%"
15"
0:"
0""
0h!
0W
0Z
0]
03"
0r!
0'
0*
0-
1-"
1:"
1""
1h!
1i!
0="
1W
1Z
1]
0y!
1r!
1+"
1'
1*
1-
05"
1s!
0i!
0%"
1="
0#"
1y!
13"
1{!
0s!
0-"
0+"
1#"
1%"
0{!
15"
03"
1+"
1-"
0%"
13"
05"
0-"
15"
#300000
b1111 #
0!
1{
0_
#310000
1!
1_
1i"
1j"
1Z"
1t!
0l!
0N
1O
1j!
0}
0g
0y!
1z!
0#"
1$"
14
05
1m
0k
1s!
1{!
0j
#320000
b11111 #
b10111 #
b10011 #
b10001 #
b10000 #
0!
0{
0"!
0$!
0&!
1(!
0_
#330000
1!
1_
1X"
0Z"
0Y"
1P"
1Q"
1&"
0S"
1|!
1P
1Q
0k!
1|
0j!
0+"
1;"
1D"
12
13
1l
1k
1%"
05"
0="
03"
1-"
1="
1E"
0;"
15"
0="
#340000
b10001 #
0!
1{
0_
#350000
1!
1_
1Z"
1_"
0`"
0b"
1["
1V
1~
0|
1g
1>
0k
1j
#360000
b10011 #
b10010 #
0!
0{
1"!
0_
#370000
1!
1_
0Z"
1Y"
1%!
1H
1k!
1;
0l
1k
#380000
b10011 #
0!
1{
0_
#390000
1!
1_
1Z"
0&"
0|!
1)!
0'!
0%!
0#!
0["
0V
0G
0H
0I
1J
0P
0Q
0k!
0~
0g
1e
1a
02
03
19
0:
0;
0<
0>
0m
0k
#400000
b10111 #
b10101 #
b10100 #
0!
0{
0"!
1$!
0_
#410000
1!
1_
1N"
0X"
0Z"
1k!
1}
1g
0e
0a
0e!
1c!
1^!
0b!
1n
1k
0`
1_!
0d!
1p
0o
0:"
0""
0h!
0W
0Z
0]
1`!
0r!
1+"
0,"
0D"
0'
0*
0-
1q
1i!
0%"
1="
0a!
0s!
0E"
0c!
#420000
b10101 #
0!
1{
0_
#430000
1!
1_
1g"
0h"
0j"
1Z"
1l!
1N
1j!
0}
0g
0z!
0+"
13"
15
1m
0k
1s!
1%"
0-"
03"
1;"
0{!
1-"
05"
0j
0;"
1C"
15"
0="
0C"
1="
1E"
0E"
#440000
b10111 #
b10110 #
0!
0{
1"!
0_
#450000
1!
1_
1X"
0Z"
0Y"
1>"
16"
1R"
1S"
1|!
0T"
0l!
1V"
0N
1P
1S
1T
0k!
1|
0j!
1r!
0$"
1+"
14"
1/
10
13
05
1l
1k
0i!
1{!
0%"
0-"
1y!
0+"
1;"
0s!
1%"
1-"
05"
1#"
1C"
0{!
0-"
0="
1+"
0%"
1E"
1-"
#460000
b10111 #
0!
1{
0_
#470000
1!
1_
1Z"
1a"
1b"
1["
1V
1~
0|
1g
1>
0k
1j
#480000
b11111 #
b11011 #
b11001 #
b11000 #
0!
0{
0"!
0$!
1&!
0_
#490000
1!
1_
0Z"
1Y"
1%!
1H
1k!
1;
0l
1k
#500000
b11001 #
0!
1{
0_
#510000
1!
1_
1Z"
0>"
06"
0|!
1l!
1#!
0["
0V
1G
1N
0P
0S
0T
0k!
0~
0g
1e
1a
0/
00
03
15
1<
0>
0m
0k
#520000
b11011 #
b11010 #
0!
0{
1"!
0_
#530000
1!
1_
1L"
0M"
0N"
0X"
0Z"
1k!
1}
1g
0e
0a
0^!
1b!
0n
0_!
1d!
0W!
1]!
0p
1\!
1X!
0[!
1O!
01!
1r
1k
1`
1o
0q
0d!
0X!
1[!
0r
1Y!
1U!
1c!
0o
1q
1s
0Y!
0Z!
1e!
0s
1Z!
1d!
1p!
1X
0e!
0d!
0y!
1z!
1,
1s!
1e!
0p!
0X
1y!
0z!
0,
1p!
0s!
1X
0y!
1z!
1,
1s!
#540000
b11011 #
0!
1{
0_
#550000
1!
1_
1h"
0i"
1j"
1Z"
1|!
0t!
0l!
0N
0O
1P
1j!
0}
0g
1y!
0#"
0+"
1,"
13
04
05
1m
0k
0s!
1{!
1%"
1#"
0{!
0%"
0j
1%"
#560000
b11111 #
b11101 #
b11100 #
0!
0{
0"!
1$!
0_
#570000
1!
1_
1X"
0Z"
0Y"
1O"
1>"
0P"
16"
0Q"
1."
1&"
0|!
1t!
0U"
1l!
0V"
1N
1O
0P
1Q
1R
1S
1T
0k!
1|
0j!
0r!
0y!
0;"
0C"
1/
10
11
12
03
14
15
1l
1k
1i!
1s!
15"
1="
0E"
0#"
0s!
1{!
0="
1E"
0%"
#580000
b11101 #
0!
1{
0_
#590000
1!
1_
1Z"
1`"
0b"
1["
1V
1~
0|
1g
1>
0k
1j
#600000
b11111 #
b11110 #
0!
0{
1"!
0_
#610000
1!
1_
0Z"
1Y"
1'!
0%!
0H
1I
1k!
1:
0;
0l
1k
#620000
b11111 #
0!
1{
0_
#630000
1!
1_
1Z"
0>"
06"
0."
0&"
1|!
0t!
0l!
1%!
0#!
0["
0V
0G
1H
0N
0O
1P
0Q
0R
0S
0T
0k!
0~
0g
1e
1a
0/
00
01
02
13
04
05
1;
0<
0>
0m
0k
#640000
b111111 #
b101111 #
b100111 #
b100011 #
b100001 #
b100000 #
0!
0{
0"!
0$!
0&!
0(!
1*!
0_
#650000
1!
1_
1N"
0X"
0Z"
1k!
1}
1g
0e
0a
1^!
0b!
1n
1k
0`
1d!
0e!
0c!
1o
1e!
0p!
0X
0z!
0,
1:"
1""
1h!
1s!
1W
1Z
1]
1r!
1'
1*
1-
0{!
0i!
1%"
1="
1y!
0s!
1{!
#660000
b100001 #
0!
1{
0_
#670000
1!
1_
1f"
0g"
0h"
0j"
1Z"
1l!
1N
1j!
0}
0g
0y!
13"
04"
1;"
15
1m
0k
1s!
0%"
0-"
05"
1C"
0{!
0="
0j
0E"
#680000
b100011 #
b100010 #
0!
0{
1"!
0_
#690000
1!
1_
1X"
0Z"
0Y"
1F"
0O"
1."
0R"
1&"
0S"
0|!
1U"
0l!
0N
0P
1Q
1R
1U
0k!
1|
0j!
1y!
0,"
03"
1.
11
12
03
05
1l
1k
0s!
1%"
1-"
1E"
0;"
1{!
0-"
15"
0C"
1="
0E"
#700000
b100011 #
0!
1{
0_
#710000
1!
1_
1Z"
1^"
0_"
0`"
0a"
1b"
1["
1V
1~
0|
1g
1>
0k
1j
#720000
b100111 #
b100101 #
b100100 #
0!
0{
0"!
1$!
0_
#730000
1!
1_
0Z"
1Y"
1+!
0)!
0'!
0%!
0H
0I
0J
1K
1k!
18
09
0:
0;
0l
1k
#740000
b100101 #
0!
1{
0_
#750000
1!
1_
1Z"
0F"
0."
0&"
1|!
1l!
1#!
0["
0V
1G
1N
1P
0Q
0R
0U
0k!
0~
0g
1e
1a
0.
01
02
13
15
1<
0>
0m
0k
#760000
b100111 #
b100110 #
0!
0{
1"!
0_
#770000
1!
1_
1M"
0N"
0X"
0Z"
1k!
1}
1g
0e
0a
0^!
1b!
0n
1_!
0d!
1W!
0]!
1p
1k
1`
0o
0_!
1d!
0p
1X!
0[!
1r
1c!
1o
0q
0r
1Y!
0e!
1q
1s
0:"
0""
1p!
0h!
0W
1X
0Z
0]
0Z!
0r!
0y!
1z!
0'
0*
1,
0-
0s
0p!
1i!
1s!
0%"
0="
0X
0z!
0`!
0d!
0,
1a!
1e!
0{!
0e!
0c!
1p!
1X
1z!
1,
0p!
0s!
0X
0z!
0,
1{!
1s!
0{!
#780000
b100111 #
0!
1{
0_
#790000
1!
1_
1i"
1j"
1Z"
1t!
0l!
0N
1O
1j!
0}
0g
1z!
14
05
1m
0k
0s!
1{!
1#"
0{!
0j
1%"
#800000
b101111 #
b101011 #
b101001 #
b101000 #
0!
0{
0"!
0$!
1&!
0_
#810000
1!
1_
1X"
0Z"
0Y"
1Q"
1S"
0|!
0U"
1V"
0P
0k!
1|
0j!
1r!
0z!
1+"
1<"
03
1l
1k
0i!
1s!
0%"
05"
1y!
0#"
0s!
1{!
1-"
1="
1#"
0+"
0{!
1%"
1+"
0%"
0-"
1-"
#820000
b101001 #
0!
1{
0_
#830000
1!
1_
1Z"
1`"
0b"
1["
1V
1~
0|
1g
1>
0k
1j
#840000
b101011 #
b101010 #
0!
0{
1"!
0_
#850000
1!
1_
0Z"
1Y"
1%!
1H
1k!
1;
0l
1k
#860000
b101011 #
0!
1{
0_
#870000
1!
1_
1Z"
1|!
1'!
0%!
0#!
0["
0V
0G
0H
1I
1P
0k!
0~
0g
1e
1a
13
1:
0;
0<
0>
0m
0k
#880000
b101111 #
b101101 #
b101100 #
0!
0{
0"!
1$!
0_
#890000
1!
1_
1N"
0X"
0Z"
1k!
1}
1g
0e
0a
1e!
1c!
1^!
0b!
1n
1k
0`
1d!
1p
0o
1p!
1X
1r
0y!
1z!
1,
0q
1s!
1s
#900000
b101101 #
0!
1{
0_
#910000
1!
1_
1h"
0j"
1Z"
1l!
1N
1j!
0}
0g
1y!
0z!
0+"
1,"
15
1m
0k
0s!
1%"
0j
#920000
b101111 #
b101110 #
0!
0{
1"!
0_
#930000
1!
1_
1X"
0Z"
0Y"
1P"
16"
0Q"
1R"
1&"
0|!
0t!
0V"
0O
0P
1Q
1S
0k!
1|
0j!
0r!
13"
0<"
1C"
10
12
03
04
1l
1k
1i!
0-"
15"
0="
0y!
1;"
0C"
1s!
05"
1="
1E"
0#"
1C"
1{!
0="
0E"
0%"
1E"
#940000
b101111 #
0!
1{
0_
#950000
1!
1_
1Z"
1a"
1b"
1["
1V
1~
0|
1g
1>
0k
1j
#960000
b111111 #
b110111 #
b110011 #
b110001 #
b110000 #
0!
0{
0"!
0$!
0&!
1(!
0_
#970000
1!
1_
0Z"
1Y"
1%!
1H
1k!
1;
0l
1k
#980000
b110001 #
0!
1{
0_
#990000
1!
1_
1Z"
06"
0&"
1|!
1t!
1#!
0["
0V
1G
1O
1P
0Q
0S
0k!
0~
0g
1e
1a
00
02
13
14
1<
0>
0m
0k
